{
	"info": {
		"_postman_id": "6fcf978b-93ef-4118-a057-30942fcbf833",
		"name": "BUS_TICKETING",
		"schema": "https://schema.getpostman.com/json/collection/v2.1.0/collection.json",
		"_exporter_id": "31373889"
	},
	"item": [
		{
			"name": "http://localhost:3000/adminSignup",
			"request": {
				"method": "POST",
				"header": [],
				"body": {
					"mode": "raw",
					"raw": "{\n    \"Email_Address\":\"xyz123@gmail.com\",\n    \"Password\":\"124qwe\"\n}",
					"options": {
						"raw": {
							"language": "json"
						}
					}
				},
				"url": {
					"raw": "http://localhost:3000/adminSignup",
					"protocol": "http",
					"host": [
						"localhost"
					],
					"port": "3000",
					"path": [
						"adminSignup"
					]
				}
			},
			"response": []
		},
		{
			"name": "http://localhost:3000/adminLogin",
			"request": {
				"method": "POST",
				"header": [],
				"body": {
					"mode": "raw",
					"raw": "{\n    \"Email_Address\":\"abc123@gmail.com\",\n    \"Password\":\"1215qwer\"\n}",
					"options": {
						"raw": {
							"language": "json"
						}
					}
				},
				"url": {
					"raw": "http://localhost:3000/adminLogin",
					"protocol": "http",
					"host": [
						"localhost"
					],
					"port": "3000",
					"path": [
						"adminLogin"
					]
				}
			},
			"response": []
		},
		{
			"name": "http://localhost:3000/admin/newBus",
			"request": {
				"method": "POST",
				"header": [
					{
						"key": "Authorization",
						"value": "eyJhbGciOiJIUzI1NiIsInR5cCI6IkpXVCJ9.eyJpYXQiOjE3MDQzMjU3MDgsImV4cCI6MTcwNDM0MzcwOH0.mudYvNIuNXiZAgZxlFhF5wVjA6v0igqVDeIAwQuQ4mo",
						"type": "text"
					}
				],
				"body": {
					"mode": "raw",
					"raw": "{\n    \"Bus_Name\":\"Dtc\",\n    \"Source_Location\":\"Rohini\",\n    \"Destination_Location\":\"Kashmiri Gate\",\n    \"Total_Seats\":5,\n    \"Available_Seats\":[1,2,3,4,5]\n}",
					"options": {
						"raw": {
							"language": "json"
						}
					}
				},
				"url": {
					"raw": "http://localhost:3000/admin/newBus",
					"protocol": "http",
					"host": [
						"localhost"
					],
					"port": "3000",
					"path": [
						"admin",
						"newBus"
					]
				}
			},
			"response": []
		},
		{
			"name": "http://localhost:3000/admin/viewTicketDetail",
			"request": {
				"method": "POST",
				"header": [
					{
						"key": "Authorization",
						"value": "eyJhbGciOiJIUzI1NiIsInR5cCI6IkpXVCJ9.eyJpYXQiOjE3MDQzMjYwMDAsImV4cCI6MTcwNDM0NDAwMH0.ANJmc0pA4PBiDfnh81ui6_OdtwGsBoXkttux4oHB3KA",
						"type": "text"
					}
				],
				"body": {
					"mode": "raw",
					"raw": "{\n   \"Ticket_id\":\"70c7b278-c0ac-4318-b58d-fa3253c2d6cf\"\n}",
					"options": {
						"raw": {
							"language": "json"
						}
					}
				},
				"url": {
					"raw": "http://localhost:3000/admin/viewTicketDetail",
					"protocol": "http",
					"host": [
						"localhost"
					],
					"port": "3000",
					"path": [
						"admin",
						"viewTicketDetail"
					]
				}
			},
			"response": []
		},
		{
			"name": "http://localhost:3000/admin/resetTickets",
			"request": {
				"method": "POST",
				"header": [
					{
						"key": "Authorization",
						"value": "eyJhbGciOiJIUzI1NiIsInR5cCI6IkpXVCJ9.eyJpYXQiOjE3MDQzMjQ2MTgsImV4cCI6MTcwNDM0MjYxOH0.181RcViUnaP41B6AUkxvkwy3mMjy-tVU4lOEWGFcwmQ",
						"type": "text"
					}
				],
				"body": {
					"mode": "raw",
					"raw": "{\n   \"Bus_id\":\"7402733a-b722-464d-8e3e-4908494a09f8\"\n}",
					"options": {
						"raw": {
							"language": "json"
						}
					}
				},
				"url": {
					"raw": "http://localhost:3000/admin/resetTickets",
					"protocol": "http",
					"host": [
						"localhost"
					],
					"port": "3000",
					"path": [
						"admin",
						"resetTickets"
					]
				}
			},
			"response": []
		},
		{
			"name": "http://localhost:3000/userSignup",
			"request": {
				"method": "POST",
				"header": [],
				"body": {
					"mode": "raw",
					"raw": "{\n    \"Name\":\"abc\",\n    \"Email_Address\":\"abc123@gmail.com\",\n    \"Password\":\"123\",\n    \"Contact_Number\":8278049171,\n    \"Age\":13,\n    \"City\":\"Delhi\"\n}",
					"options": {
						"raw": {
							"language": "json"
						}
					}
				},
				"url": {
					"raw": "http://localhost:3000/userSignup",
					"protocol": "http",
					"host": [
						"localhost"
					],
					"port": "3000",
					"path": [
						"userSignup"
					]
				}
			},
			"response": []
		},
		{
			"name": "http://localhost:3000/userLogin",
			"request": {
				"method": "POST",
				"header": [],
				"body": {
					"mode": "raw",
					"raw": "{\n    \"Email_Address\": \"abc123@gmail.com\",\n    \"Password\": \"123\"\n}",
					"options": {
						"raw": {
							"language": "json"
						}
					}
				},
				"url": {
					"raw": "http://localhost:3000/userLogin",
					"protocol": "http",
					"host": [
						"localhost"
					],
					"port": "3000",
					"path": [
						"userLogin"
					]
				}
			},
			"response": []
		},
		{
			"name": "http://localhost:3000/user/allBus",
			"protocolProfileBehavior": {
				"disableBodyPruning": true
			},
			"request": {
				"method": "GET",
				"header": [
					{
						"key": "Authorization",
						"value": "eyJhbGciOiJIUzI1NiIsInR5cCI6IkpXVCJ9.eyJpYXQiOjE3MDQzMjY2NzAsImV4cCI6MTcwNDM0NDY3MH0.4lXAx6HtMCiPES9XgBY_nhRewXNxT53AoJ8r4Sgerz0",
						"type": "text"
					}
				],
				"body": {
					"mode": "raw",
					"raw": "{\n    \"Email_Address\": \"abc123@gmail.com\",\n    \"Password\": \"123\"\n}",
					"options": {
						"raw": {
							"language": "json"
						}
					}
				},
				"url": {
					"raw": "http://localhost:3000/user/allBus",
					"protocol": "http",
					"host": [
						"localhost"
					],
					"port": "3000",
					"path": [
						"user",
						"allBus"
					]
				}
			},
			"response": []
		},
		{
			"name": "http://localhost:3000/user/busDetail",
			"request": {
				"method": "POST",
				"header": [
					{
						"key": "Authorization",
						"value": "eyJhbGciOiJIUzI1NiIsInR5cCI6IkpXVCJ9.eyJpYXQiOjE3MDQzMjY3NzMsImV4cCI6MTcwNDM0NDc3M30.zNoLD2o4x-A0FUvrVHO7evjQP7D8RysCeiwxdLaorzw",
						"type": "text"
					}
				],
				"body": {
					"mode": "raw",
					"raw": "{\n    \"Bus_id\":\"778194a2-d65e-4786-93a9-7d67c40fb6cb\"\n}",
					"options": {
						"raw": {
							"language": "json"
						}
					}
				},
				"url": {
					"raw": "http://localhost:3000/user/busDetail",
					"protocol": "http",
					"host": [
						"localhost"
					],
					"port": "3000",
					"path": [
						"user",
						"busDetail"
					]
				}
			},
			"response": []
		},
		{
			"name": "http://localhost:3000/user/bookTicket",
			"request": {
				"method": "POST",
				"header": [
					{
						"key": "Authorization",
						"value": "eyJhbGciOiJIUzI1NiIsInR5cCI6IkpXVCJ9.eyJpYXQiOjE3MDQzMjY5NDIsImV4cCI6MTcwNDM0NDk0Mn0.ZTNLDjOXiRfgzrXJ8_iwtdSIIGJK1ncpt0EqFvkza_8",
						"type": "text"
					}
				],
				"body": {
					"mode": "raw",
					"raw": "{\n    \"Email_Address\":\"pinkurana0075@gmail.com\",\n    \"Bus_id\":\"cf99101c-3d92-4c87-82e0-1d287fce6956\",\n    \"Seat_Number\":1\n}",
					"options": {
						"raw": {
							"language": "json"
						}
					}
				},
				"url": {
					"raw": "http://localhost:3000/user/bookTicket",
					"protocol": "http",
					"host": [
						"localhost"
					],
					"port": "3000",
					"path": [
						"user",
						"bookTicket"
					]
				}
			},
			"response": []
		},
		{
			"name": "http://localhost:3000/user/cancelTicket",
			"request": {
				"method": "POST",
				"header": [
					{
						"key": "Authorization",
						"value": "eyJhbGciOiJIUzI1NiIsInR5cCI6IkpXVCJ9.eyJpYXQiOjE3MDQzMjcxMzcsImV4cCI6MTcwNDM0NTEzN30.-bc-CQOkzWWQn6864zGIkO54Tmh3QN54lmJZcH5qbC8",
						"type": "text"
					}
				],
				"body": {
					"mode": "raw",
					"raw": "{\n    \"Ticket_id\":\"94395270-7d6b-4eea-9254-518d26972032\"\n}",
					"options": {
						"raw": {
							"language": "json"
						}
					}
				},
				"url": {
					"raw": "http://localhost:3000/user/cancelTicket",
					"protocol": "http",
					"host": [
						"localhost"
					],
					"port": "3000",
					"path": [
						"user",
						"cancelTicket"
					]
				}
			},
			"response": []
		}
	]
}